{
	"authors": [
		"Andrea Bressan"
	],
	"copyright": "Copyright © 2020, Andrea Bressan",
	"dependencies": {
		"mir": ">=3.2.1",
		"mir-blas": "*",
		"mir-algorithm": "*",
		"mir-lapack": "*",
	},
	"description": " Isogeometric analysis in D",
	"license": "proprietary",
	"name": "diga",
	"toolchainRequirements": {
		"dmd": "no",
		"gdc": "no",
		"ldc2": ">=1.20.0"
	},
    "importPaths": [ "diga" ],
    "sourcePaths": ["diga"]
}
